{
  "type": "minecraft:crafting_shaped",
  "pattern": [
    "$X$",
    "$X$"
  ],

  "key": {
    "X": {
      "item": "minecraft:leather"
    },
    "$": {
      "item": "minecraft:string"
    }
  },

  "result": {
    "item": "archeryoverhaulmod:hardened_leather"
  }
}