{
  "type": "minecraft:campfire_cooking",
  "ingredient": {
    "item": "archeryoverhaulmod:drenched_jungle_bow_body"
  },
  "result": "archeryoverhaulmod:jungle_bow_body",
  "experience": 3.65,
  "cookingtime": 72000
}