{
  "variants": {
    "facing=north": {"model": "archeryoverhaulmod:block/bowyers_workbench"},
    "facing=south": {"model": "archeryoverhaulmod:block/bowyers_workbench", "y": 180},
    "facing=east": {"model": "archeryoverhaulmod:block/bowyers_workbench", "y": 90},
    "facing=west": {"model": "archeryoverhaulmod:block/bowyers_workbench", "y": 270},
    "facing=up": {"model": "archeryoverhaulmod:block/bowyers_workbench"},
    "facing=down": {"model": "archeryoverhaulmod:block/bowyers_workbench"}
  }
}